[
"2019-01-01",
"2019-01-02",
"2019-01-03",
"2019-01-04",
"2019-01-05",
"2019-01-06",
"2019-01-07",
"2019-01-08",
"2019-02-23",
"2019-02-24",
"2019-03-08",
"2019-03-09",
"2019-03-10",
"2019-05-01",
"2019-05-02",
"2019-05-03",
"2019-05-04",
"2019-05-05",
"2019-05-09",
"2019-05-10",
"2019-05-11",
"2019-05-12",
"2019-06-12",
"2019-11-02",
"2019-11-03",
"2019-11-04"
]